publisher.db.url=jdbc:mysql://10.31.1.192:3306/test
publisher.db.user=insight
publisher.db.password=Mps@123*

mongo.db.driver=10.31.1.204

publisher.rsc.year=2019
publisher.rsc.month=10
publisher.rsc.webmart_id=401
publisher.name=rsc


